r_website - data wrangling
…
The dataset has 19066 rows and 13 columns. We can also see that we have various types of variables: many numeric, one factor and one character.

Subsetting

You can subset a dataframe either by columns or by rows. If you want to extract a subset of rows based on some logical conditions you can use filter(). Lets say we want only storms from 2020:

storms %>%
  filter(year == 2020)

# A tibble: 863 × 13
   name    year month   day  hour   lat  long status     category  wind pressure
   <chr>  <dbl> <dbl> <int> <dbl> <dbl> <dbl> <fct>         <dbl> <int>    <int>
 1 Arthur  2020     5    16    18  28   -78.7 tropical …       NA    30     1008
 2 Arthur  2020     5    17     0  28.9 -78   tropical …       NA    35     1006
 3 Arthur  2020     5    17     6  29.6 -77.6 tropical …       NA    35     1004
 4 Arthur  2020     5    17    12  30.3 -77.5 tropical …       NA    35     1003
 5 Arthur  2020     5    17    18  31   -77.3 tropical …       NA    40     1003
 6 Arthur  2020     5    18     0  31.9 -77   tropical …       NA    40     1003
 7 Arthur  2020     5    18     6  33.1 -76.7 tropical …       NA    40     1002
 8 Arthur  2020     5    18    12  34.4 -75.9 tropical …       NA    45     1000
 9 Arthur  2020     5    18    18  35.5 -74.7 tropical …       NA    45      993
10 Arthur  2020     5    19     0  36.2 -73.1 tropical …       NA    50      991
# ℹ 853 more rows
# ℹ 2 more variables: tropicalstorm_force_diameter <int>,
#   hurricane_force_diameter <int>

We can also filter based on multiple conditions. This works exactly like all the logical operations we’ve seen previously. One difference is that you can use , instead of &. Lets say we want to get all storms from June 2020:

storms %>%
  filter(year == 2020, month == 6)

# A tibble: 57 × 13
   name       year month   day  hour   lat  long status  category  wind pressure
   <chr>     <dbl> <dbl> <int> <dbl> <dbl> <dbl> <fct>      <dbl> <int>    <int>
 1 Cristobal  2020     6     1    18  19.4 -90.9 tropic…       NA    25     1006
 2 Cristobal  2020     6     2     0  19.6 -91.6 tropic…       NA    25     1005
 3 Cristobal  2020     6     2     6  19.6 -92.1 tropic…       NA    30     1005
 4 Cristobal  2020     6     2    12  19.5 -92.5 tropic…       NA    35     1004
 5 Cristobal  2020     6     2    18  19.2 -92.6 tropic…       NA    40     1001
 6 Cristobal  2020     6     3     0  19   -92.5 tropic…       NA    45      996
 7 Cristobal  2020     6     3     6  18.9 -92.3 tropic…       NA    50      994
 8 Cristobal  2020     6     3    12  18.8 -92.2 tropic…       NA    50      993
 9 Cristobal  2020     6     3    13  18.7 -92.1 tropic…       NA    50      993
10 Cristobal  2020     6     3    18  18.5 -91.9 tropic…       NA    45      994
# ℹ 47 more rows
# ℹ 2 more variables: tropicalstorm_force_diameter <int>,
#   hurricane_force_diameter <int>

There were 57 storms recorded in June 2020.

If you want to select only certain columns from a dataset you can use select(). E.g. if we want only the name, latitude and longitude of the storm we can do it like this:

storms %>%
  select(name, lat, long)

# A tibble: 19,066 × 3
   name    lat  long
   <chr> <dbl> <dbl>
 1 Amy    27.5 -79  
 2 Amy    28.5 -79  
 3 Amy    29.5 -79  
 4 Amy    30.5 -79  
 5 Amy    31.5 -78.8
 6 Amy    32.4 -78.7
 7 Amy    33.3 -78  
 8 Amy    34   -77  
 9 Amy    34.4 -75.8
10 Amy    34   -74.8
# ℹ 19,056 more rows

If you want to select a range of columns you can use :

storms %>%
  select(year:hour)

# A tibble: 19,066 × 4
    year month   day  hour
   <dbl> <dbl> <int> <dbl>
 1  1975     6    27     0
 2  1975     6    27     6
 3  1975     6    27    12
 4  1975     6    27    18
 5  1975     6    28     0
 6  1975     6    28     6
 7  1975     6    28    12
 8  1975     6    28    18
 9  1975     6    29     0
10  1975     6    29     6
# ℹ 19,056 more rows

A particular situation in which you might want to subset a dataset is to get the rows with highest/lowest values of a variable, get the first/last rows or draw a random sample from the dataset. All of these can be achieved by different versions of slice(). slice_sample() will draw a random sample from the dataset (either by number or proportion). You can also specify if you want to draw with replacements:

storms %>%
  slice_sample(n = 100)

# A tibble: 100 × 13
   name      year month   day  hour   lat  long status   category  wind pressure
   <chr>    <dbl> <dbl> <int> <dbl> <dbl> <dbl> <fct>       <dbl> <int>    <int>
 1 Georges   1998     9    15    12   9.7 -25.1 tropica…       NA    30     1009
 2 Danielle  1998     9     7    12  55   -15   extratr…       NA    40      977
 3 Karl      2010     9    15     0  18.3 -85   tropica…       NA    40      999
 4 Ivan      2004     9    10     6  15.7 -73.8 hurrica…        4   125      930
 5 Bertha    2014     8     6    12  39.4 -64.1 tropica…       NA    45     1006
 6 Omar      2020     9     1     6  33.8 -75   tropica…       NA    30     1005
 7 Dolly     2008     7    22    18  24.3 -94.9 tropica…       NA    60      990
 8 AL121999  1999    10     7     6  15.6 -46.5 tropica…       NA    30     1008
 9 Florence  2018     9     1     0  14   -24.9 tropica…       NA    30     1006
10 Rina      2017    11     6    18  29.4 -50.2 tropica…       NA    30     1009
# ℹ 90 more rows
# ℹ 2 more variables: tropicalstorm_force_diameter <int>,
#   hurricane_force_diameter <int>

slice_min() and slice_max() allow you to get rows with highest values on a variable.

storms %>%
  slice_max(wind, n = 10)

# A tibble: 24 × 13
   name     year month   day  hour   lat  long status    category  wind pressure
   <chr>   <dbl> <dbl> <int> <dbl> <dbl> <dbl> <fct>        <dbl> <int>    <int>
 1 Allen    1980     8     7    18  21.8 -86.4 hurricane        5   165      899
 2 Gilbert  1988     9    14     0  19.7 -83.8 hurricane        5   160      888
 3 Wilma    2005    10    19    12  17.3 -82.8 hurricane        5   160      882
 4 Dorian   2019     9     1    16  26.5 -77   hurricane        5   160      910
 5 Dorian   2019     9     1    18  26.5 -77.1 hurricane        5   160      910
 6 Allen    1980     8     5    12  15.9 -70.5 hurricane        5   155      932
 7 Allen    1980     8     7    12  21   -84.8 hurricane        5   155      910
 8 Allen    1980     8     8     0  22.2 -87.9 hurricane        5   155      920
 9 Allen    1980     8     9     6  25   -94.2 hurricane        5   155      909
10 Gilbert  1988     9    14     6  19.9 -85.3 hurricane        5   155      889
# ℹ 14 more rows
# ℹ 2 more variables: tropicalstorm_force_diameter <int>,
#   hurricane_force_diameter <int>
…
Sorting

Sorting datasets based on variables is super simple. You can use the arrange() function and if you need to sort in descending order use desc() inside it. Lets say we want to find the storm with the strongest wind:

storms %>%
  arrange(desc(wind))

# A tibble: 19,066 × 13
   name     year month   day  hour   lat  long status    category  wind pressure
   <chr>   <dbl> <dbl> <int> <dbl> <dbl> <dbl> <fct>        <dbl> <int>    <int>
 1 Allen    1980     8     7    18  21.8 -86.4 hurricane        5   165      899
 2 Gilbert  1988     9    14     0  19.7 -83.8 hurricane        5   160      888
 3 Wilma    2005    10    19    12  17.3 -82.8 hurricane        5   160      882
 4 Dorian   2019     9     1    16  26.5 -77   hurricane        5   160      910
 5 Dorian   2019     9     1    18  26.5 -77.1 hurricane        5   160      910
 6 Allen    1980     8     5    12  15.9 -70.5 hurricane        5   155      932
 7 Allen    1980     8     7    12  21   -84.8 hurricane        5   155      910
 8 Allen    1980     8     8     0  22.2 -87.9 hurricane        5   155      920
 9 Allen    1980     8     9     6  25   -94.2 hurricane        5   155      909
10 Gilbert  1988     9    14     6  19.9 -85.3 hurricane        5   155      889
# ℹ 19,056 more rows
# ℹ 2 more variables: tropicalstorm_force_diameter <int>,
#   hurricane_force_diameter <int>

Looks like Allen from 1980 was the strongest storm.

Counting

Counting values in variables is very simple, just use count(). One thing to remember is that count() will returned a different dataframe. Unless you specify anything additional it will return a dataframe with 2 columns: one will contain all unique values of the variable you counted and the other one, named n will contain their counts (you can specify the name variable to change that to something else). Setting sort argument to TRUE will sort the counts in descending order. E.g. if we want to find out which year had the most measurements of storms (and not the number of storms! Remember that each row is 1 measurement of 1 storm) we can do it with:

storms %>%
  count(year, sort = TRUE)

# A tibble: 47 × 2
    year     n
   <dbl> <int>
 1  2005   873
 2  2020   863
 3  1995   762
 4  2010   663
 5  2012   654
 6  2017   610
 7  2018   608
 8  2004   604
 9  2003   593
10  2021   592
# ℹ 37 more rows

Changing variables

A common task when wrangling data is creating new variables in an already existing dataset. You can do it by using mutate(). Lets say we want to create a new variable that stores information on whether the storm was during summer (June, July, August) or not:

storms %>%
  mutate(summer = ifelse(month == 6 | month == 7 | month == 8, TRUE, FALSE))

# A tibble: 19,066 × 14
   name   year month   day  hour   lat  long status      category  wind pressure
   <chr> <dbl> <dbl> <int> <dbl> <dbl> <dbl> <fct>          <dbl> <int>    <int>
 1 Amy    1975     6    27     0  27.5 -79   tropical d…       NA    25     1013
 2 Amy    1975     6    27     6  28.5 -79   tropical d…       NA    25     1013
 3 Amy    1975     6    27    12  29.5 -79   tropical d…       NA    25     1013
 4 Amy    1975     6    27    18  30.5 -79   tropical d…       NA    25     1013
 5 Amy    1975     6    28     0  31.5 -78.8 tropical d…       NA    25     1012
 6 Amy    1975     6    28     6  32.4 -78.7 tropical d…       NA    25     1012
 7 Amy    1975     6    28    12  33.3 -78   tropical d…       NA    25     1011
 8 Amy    1975     6    28    18  34   -77   tropical d…       NA    30     1006
 9 Amy    1975     6    29     0  34.4 -75.8 tropical s…       NA    35     1004
10 Amy    1975     6    29     6  34   -74.8 tropical s…       NA    40     1002
# ℹ 19,056 more rows
# ℹ 3 more variables: tropicalstorm_force_diameter <int>,
#   hurricane_force_diameter <int>, summer <lgl>
…
Notice that the shape of the dataset has changed now. The columns are now the summaries and not the original variables.

Grouping rows

So far we have been calculating things on entire datasets. In many situations you want to calculate something separately for each level of a categorical variable (much like tapply() earlier). To group a dataset we can use group_by(). You can also group by multiple variables at once by separating them by a coma. R will group by the first variable and then by the second etc. This is especially useful for creating summaries. E.g. if we want to get average wind speed for each storm we can easily do it:

storms %>%
  group_by(name) %>%
  summarise(mean_wind = mean(wind, na.rm = T))

# A tibble: 258 × 2
   name     mean_wind
   <chr>        <dbl>
 1 AL011993      29.5
 2 AL012000      25  
 3 AL021992      29  
 4 AL021994      24.2
 5 AL021999      28.8
 6 AL022000      29.2
 7 AL022001      25  
 8 AL022003      30  
 9 AL022006      31.5
10 AL031987      21.2
# ℹ 248 more rows

Similarly if we want to calculate average wind speed from all measurements for each year and month:

storms %>%
  group_by(year, month) %>%
  summarise(mean_wind = mean(wind, na.rm = T))

`summarise()` has grouped output by 'year'. You can override using the
`.groups` argument.

# A tibble: 253 × 3
# Groups:   year [47]
    year month mean_wind
   <dbl> <dbl>     <dbl>
 1  1975     6      37.5
 2  1975     7      49.7
 3  1975     8      44.5
 4  1975     9      55.9
 5  1975    10      62.4
 6  1976     8      55.9
 7  1976     9      61.3
 8  1976    10      51.0
 9  1977     8      53  
10  1977     9      50.6
# ℹ 243 more rows
…
Helper verbs

One more useful thing for data wrangling is a set of functions making it easier to select multiple columns based on some condition. There are a few helper functions you can use to do that. They do basically what their names suggest. These verbs are as follows: starts_with(), ends_with() and contains(). This way you don’t have to manually type all the names if they have something in common (e.g. they are items from the same scale so they are named ``scale_1, scale_2 etc.). E.g. lets say we want to get all the columns that end with “diameter”:

storms %>%
  select(ends_with("diameter"))

# A tibble: 19,066 × 2
   tropicalstorm_force_diameter hurricane_force_diameter
                          <int>                    <int>
 1                           NA                       NA
 2                           NA                       NA
 3                           NA                       NA
 4                           NA                       NA
 5                           NA                       NA
 6                           NA                       NA
 7                           NA                       NA
 8                           NA                       NA
 9                           NA                       NA
10                           NA                       NA
# ℹ 19,056 more rows
…
Example 2: Lets say we want to find the average wind speed at each hour of the day but we want that in kilometers per hours rather than knots (as is in the database). 1 knot is around 1.852 km/h.

storms %>%
  mutate(wind_km = wind*1.852) %>%
  group_by(hour) %>%
  summarise(mean_wind_km = mean(wind, na.rm = T))

# A tibble: 24 × 2
    hour mean_wind_km
   <dbl>        <dbl>
 1     0         49.6
 2     1         76.2
 3     2         64.4
 4     3         76.7
 5     4         70.6
 6     5         76.2
 7     6         49.7
 8     7         80.8
 9     8         68.2
10     9         60.9
# ℹ 14 more rows
…
