Restructuring and joining data – r_website
…
Lets try and answer our question about how countries voted on specific issues:

votes %>%
  inner_join(issues, by = "rcid") %>%
  group_by(issue, country) %>%
  count(vote)

Warning in inner_join(., issues, by = "rcid"): Detected an unexpected many-to-many relationship between `x` and `y`.
ℹ Row 382 of `x` matches multiple rows in `y`.
ℹ Row 3009 of `y` matches multiple rows in `x`.
ℹ If a many-to-many relationship is expected, set `relationship =
  "many-to-many"` to silence this warning.

# A tibble: 3,469 × 4
# Groups:   issue, country [1,195]
   issue                        country     vote        n
   <chr>                        <chr>       <chr>   <int>
 1 Arms control and disarmament Afghanistan abstain    69
 2 Arms control and disarmament Afghanistan no         19
 3 Arms control and disarmament Afghanistan yes       939
 4 Arms control and disarmament Albania     abstain   114
 5 Arms control and disarmament Albania     no        168
 6 Arms control and disarmament Albania     yes       468
 7 Arms control and disarmament Algeria     abstain   109
 8 Arms control and disarmament Algeria     no          2
 9 Arms control and disarmament Algeria     yes       929
10 Arms control and disarmament Andorra     abstain   112
# ℹ 3,459 more rows

Notice that we got a warning about a many-to-many relationship. That’s because in the votes dataset multiple rows have the same rcid value (multiple countries voted in the same roll calls) and in the issues datasets certain roll calls have more than one issue.

Apart from the classic joins there are also filtering joins. They don’t really join datasets but they filter the datasets to keep the rows that match (semi_join()) or don’t match (anti_join()). Using them we can e.g. find out for which roll calls we don’t have information on their issues:

roll_calls %>%
  anti_join(issues, by = "rcid")

# A tibble: 2,103 × 9
    rcid session importantvote date       unres   amend  para short        descr
   <dbl>   <dbl>         <dbl> <date>     <chr>   <dbl> <dbl> <chr>        <chr>
 1     3       1             0 1946-01-01 R/1/66      1     0 AMENDMENTS,… "TO …
 2     4       1             0 1946-01-02 R/1/79      0     0 SECURITY CO… "TO …
 3     5       1             0 1946-01-04 R/1/98      0     0 VOTING PROC… "TO …
 4     7       1             0 1946-01-02 R/1/295     1     0 GENERAL ASS… "TO …
 5     9       1             0 1946-02-05 R/1/329     0     0 POST-WAR RE… "TO …
 6    10       1             0 1946-02-05 R/1/361     1     1 U.N. MEMBER… "TO …
 7    12       1             0 1946-02-06 R/1/394     1     1 COUNCIL MEM… "TO …
 8    13       1             0 1946-02-01 R/1/434     1     1 PROPAGANDA,… "TO …
 9    14       1             0 1946-02-01 R/1/435     1     1 PERSONNEL, … "TO …
10    15       1             0 1946-02-01 R/1/435     1     1 QUISLINGS, … "TO …
# ℹ 2,093 more rows
…
From wide to long format and back again

The last thing we’ll cover here is changing the format of your data from wide to long or vice versa. For many datasets there are 2 ways in which you can store information.

In wide format you generally store 1 observation in one row (e.g. one participant across all the waves of a study), In long format one row is one measurement for one observation (e.g. 1 wave for 1 participant). Lets look at the votes data frame. if we are interested in roll calls its currently in a long format - each row is 1 vote in a given roll call for one country. In wide format we could have 1 row per roll call and 1 column per country.

You can reshape the dataset into a wide format using pivot_wider(). You need to specify 3 things: from which column to derive values for new columns, (values_from) from which columns to use values for new variable names (names_from) and a set of observations that uniquely identify each observation. (id_cols). The last argument is needed so that we end up with 1 value per cell. We can reshape the votes data frame like this:

votes_wide <- votes %>%
  pivot_wider(id_cols = "rcid", names_from = "country", values_from = "vote")

votes_wide

# A tibble: 6,202 × 201
    rcid `United States` Canada Cuba  Haiti `Dominican Republic` Mexico
   <dbl> <chr>           <chr>  <chr> <chr> <chr>                <chr> 
 1     3 yes             no     yes   yes   yes                  yes   
 2     4 no              no     no    no    no                   no    
 3     5 no              no     yes   no    no                   yes   
 4     6 no              no     yes   <NA>  abstain              yes   
 5     7 no              no     yes   yes   yes                  yes   
 6     8 no              yes    yes   <NA>  yes                  yes   
 7     9 yes             yes    yes   yes   yes                  yes   
 8    10 yes             yes    yes   yes   yes                  yes   
 9    11 yes             yes    yes   <NA>  yes                  <NA>  
10    12 yes             yes    yes   <NA>  yes                  no    
# ℹ 6,192 more rows
# ℹ 194 more variables: Guatemala <chr>, Honduras <chr>, `El Salvador` <chr>,
#   Nicaragua <chr>, `Costa Rica` <chr>, Panama <chr>, Colombia <chr>,
#   Venezuela <chr>, Ecuador <chr>, Peru <chr>, Brazil <chr>, Bolivia <chr>,
#   Paraguay <chr>, Chile <chr>, Argentina <chr>, Uruguay <chr>,
#   `United Kingdom` <chr>, Netherlands <chr>, Belgium <chr>, Luxembourg <chr>,
#   France <chr>, Poland <chr>, Czechoslovakia <chr>, Yugoslavia <chr>, …

You could reshape the data in a different way so that each country is in 1 row and each column is a separate roll call:

votes_wide2 <- votes %>%
  pivot_wider(id_cols = "country", names_from = "rcid", values_from = "vote")

votes_wide2

# A tibble: 200 × 6,203
   country     `3`   `4`   `5`   `6`   `7`   `8`   `9`   `10`  `11`  `12`  `13` 
   <chr>       <chr> <chr> <chr> <chr> <chr> <chr> <chr> <chr> <chr> <chr> <chr>
 1 United Sta… yes   no    no    no    no    no    yes   yes   yes   yes   no   
 2 Canada      no    no    no    no    no    yes   yes   yes   yes   yes   no   
 3 Cuba        yes   no    yes   yes   yes   yes   yes   yes   yes   yes   no   
 4 Haiti       yes   no    no    <NA>  yes   <NA>  yes   yes   <NA>  <NA>  <NA> 
 5 Dominican … yes   no    no    abst… yes   yes   yes   yes   yes   yes   no   
 6 Mexico      yes   no    yes   yes   yes   yes   yes   yes   <NA>  no    <NA> 
 7 Guatemala   yes   no    no    no    <NA>  yes   <NA>  yes   <NA>  <NA>  <NA> 
 8 Honduras    yes   no    yes   yes   yes   <NA>  <NA>  <NA>  yes   yes   no   
 9 El Salvador yes   no    yes   abst… <NA>  <NA>  yes   no    <NA>  <NA>  no   
10 Nicaragua   yes   no    yes   yes   yes   <NA>  <NA>  no    <NA>  <NA>  <NA> 
# ℹ 190 more rows
# ℹ 6,191 more variables: `14` <chr>, `15` <chr>, `16` <chr>, `17` <chr>,
#   `18` <chr>, `19` <chr>, `20` <chr>, `21` <chr>, `22` <chr>, `23` <chr>,
#   `24` <chr>, `25` <chr>, `26` <chr>, `27` <chr>, `28` <chr>, `29` <chr>,
#   `30` <chr>, `31` <chr>, `32` <chr>, `33` <chr>, `34` <chr>, `35` <chr>,
#   `36` <chr>, `37` <chr>, `38` <chr>, `39` <chr>, `40` <chr>, `41` <chr>,
#   `42` <chr>, `43` <chr>, `44` <chr>, `45` <chr>, `46` <chr>, `47` <chr>, …

There is no one correct way to shape your data. Instead the shape of your data should match the question you want to answer.

You can reshape the dataset into a long format using pivot_longer(). You nned to pass it a data frame, columns to reshape and how to name he new column with values and the new column with names. The latter will use variable names as its values. We can go back to the long format of votes:

votes_long <- votes_wide %>%
  pivot_longer(cols = "United States":"South Sudan", names_to = "country", values_to = "vote")

votes_long

# A tibble: 1,240,400 × 3
    rcid country            vote 
   <dbl> <chr>              <chr>
 1     3 United States      yes  
 2     3 Canada             no   
 3     3 Cuba               yes  
 4     3 Haiti              yes  
 5     3 Dominican Republic yes  
 6     3 Mexico             yes  
 7     3 Guatemala          yes  
 8     3 Honduras           yes  
 9     3 El Salvador        yes  
10     3 Nicaragua          yes  
# ℹ 1,240,390 more rows
…
